{
  "name": "clipster",
  "css_prefix_text": "clipster-",
  "css_use_suffix": false,
  "hinting": true,
  "units_per_em": 1000,
  "ascent": 850,
  "glyphs": [
    {
      "uid": "72109d2fb3088d0e66ea6a9204297651",
      "css": "spin1",
      "code": 59392,
      "src": "fontelico"
    },
    {
      "uid": "9dd9e835aebe1060ba7190ad2b2ed951",
      "css": "search",
      "code": 59440,
      "src": "fontawesome"
    },
    {
      "uid": "d17030afaecc1e1c22349b99f3c4992a",
      "css": "star-empty",
      "code": 59409,
      "src": "fontawesome"
    },
    {
      "uid": "12f4ece88e46abd864e40b35e05b11cd",
      "css": "ok",
      "code": 59394,
      "src": "fontawesome"
    },
    {
      "uid": "43ab845088317bd348dee1d975700c48",
      "css": "ok-circled",
      "code": 59395,
      "src": "fontawesome"
    },
    {
      "uid": "5211af474d3a9848f67f945e2ccaf143",
      "css": "cancel",
      "code": 59396,
      "src": "fontawesome"
    },
    {
      "uid": "0f4cae16f34ae243a6144c18a003f2d8",
      "css": "cancel-circled",
      "code": 59397,
      "src": "fontawesome"
    },
    {
      "uid": "44e04715aecbca7f266a17d5a7863c68",
      "css": "plus",
      "code": 59417,
      "src": "fontawesome"
    },
    {
      "uid": "3db5347bd219f3bce6025780f5d9ef45",
      "css": "tag",
      "code": 59444,
      "src": "fontawesome"
    },
    {
      "uid": "a3f89e106175a5c5c4e9738870b12e55",
      "css": "tags",
      "code": 59445,
      "src": "fontawesome"
    },
    {
      "uid": "acf41aa4018e58d49525665469e35665",
      "css": "thumbs-up",
      "code": 59398,
      "src": "fontawesome"
    },
    {
      "uid": "7533e68038fc6d520ede7a7ffa0a2f64",
      "css": "thumbs-down",
      "code": 59399,
      "src": "fontawesome"
    },
    {
      "uid": "5e2ab018e3044337bcef5f7e94098ea1",
      "css": "thumbs-up-alt",
      "code": 59400,
      "src": "fontawesome"
    },
    {
      "uid": "ddcd918b502642705838815d40aea9e3",
      "css": "thumbs-down-alt",
      "code": 59401,
      "src": "fontawesome"
    },
    {
      "uid": "9a76bc135eac17d2c8b8ad4a5774fc87",
      "css": "download",
      "code": 59402,
      "src": "fontawesome"
    },
    {
      "uid": "f5999a012fc3752386635ec02a858447",
      "css": "download-cloud-1",
      "code": 59435,
      "src": "fontawesome"
    },
    {
      "uid": "de2fc7a5c986ab8c622f63455d7cf814",
      "css": "upload-cloud-1",
      "code": 59436,
      "src": "fontawesome"
    },
    {
      "uid": "cd21cbfb28ad4d903cede582157f65dc",
      "css": "bell",
      "code": 59412,
      "src": "fontawesome"
    },
    {
      "uid": "f48ae54adfb27d8ada53d0fd9e34ee10",
      "css": "trash-empty",
      "code": 59410,
      "src": "fontawesome"
    },
    {
      "uid": "0d20938846444af8deb1920dc85a29fb",
      "css": "logout",
      "code": 59408,
      "src": "fontawesome"
    },
    {
      "uid": "bc71f4c6e53394d5ba46b063040014f1",
      "css": "cw-1",
      "code": 59416,
      "src": "fontawesome"
    },
    {
      "uid": "cd4bfdae4dc89b175ff49330ce29611a",
      "css": "wifi",
      "code": 59451,
      "src": "fontawesome"
    },
    {
      "uid": "ab656e280958018a7859eba9a1eabbc7",
      "css": "award",
      "code": 59450,
      "src": "fontawesome"
    },
    {
      "uid": "2c413e78faf1d6631fd7b094d14c2253",
      "css": "cloud-5",
      "code": 59437,
      "src": "fontawesome"
    },
    {
      "uid": "dd6c6b221a1088ff8a9b9cd32d0b3dd5",
      "css": "check",
      "code": 59452,
      "src": "fontawesome"
    },
    {
      "uid": "4b900d04e8ab8c82f080c1cfbac5772c",
      "css": "check-empty",
      "code": 59453,
      "src": "fontawesome"
    },
    {
      "uid": "20fc52f9a88bb7bda023ef209acac095",
      "css": "graduation-cap",
      "code": 59448,
      "src": "fontawesome"
    },
    {
      "uid": "bbd66ef66bb8fa9edde54d9a90b89150",
      "css": "user",
      "code": 59411,
      "src": "entypo"
    },
    {
      "uid": "6274e0601f2feef7eced89146e708de0",
      "css": "user-add",
      "code": 59393,
      "src": "entypo"
    },
    {
      "uid": "2cfb3f2b46b34a1790aec0aa846297b6",
      "css": "menu",
      "code": 59441,
      "src": "entypo"
    },
    {
      "uid": "70370693ada58ef0a60fa0984fe8d52a",
      "css": "plus-1",
      "code": 59418,
      "src": "entypo"
    },
    {
      "uid": "b08cfe8039de2ce815686aced2caef06",
      "css": "download-1",
      "code": 59403,
      "src": "entypo"
    },
    {
      "uid": "5d595124cecf472869d1cdc020da0ccc",
      "css": "upload-cloud-2",
      "code": 59438,
      "src": "entypo"
    },
    {
      "uid": "7f6916533c0842b6cec699fd773693d3",
      "css": "hourglass",
      "code": 59407,
      "src": "entypo"
    },
    {
      "uid": "114fed43140e2b5ce42c48b95c19375b",
      "css": "cloud-6",
      "code": 59439,
      "src": "entypo"
    },
    {
      "uid": "86157b2f942e37940f8702a4a3221a2b",
      "css": "download-outline",
      "code": 59404,
      "src": "typicons"
    },
    {
      "uid": "ec3be32c1330a17ef251b378ebd7d3ac",
      "css": "left-outline",
      "code": 59421,
      "src": "typicons"
    },
    {
      "uid": "ccd52a22af21fbaa98a9c85fb50fca6b",
      "css": "info",
      "code": 59449,
      "src": "iconic"
    },
    {
      "uid": "815576dccc008afcfd83a38378a4fdde",
      "css": "download-2",
      "code": 59405,
      "src": "iconic"
    },
    {
      "uid": "hbvhbnoivp3qj8xpyqrxa7dvq9ntnci3",
      "css": "plus-2",
      "code": 59419,
      "src": "modernpics"
    },
    {
      "uid": "r36ey62e6pi493s139u528739kjr3o8w",
      "css": "tablet",
      "code": 59443,
      "src": "modernpics"
    },
    {
      "uid": "8f1bbb4667a8372dc4bb7de767f22f11",
      "css": "clouds-inv",
      "code": 59434,
      "src": "meteocons"
    },
    {
      "uid": "7162ef3c04c51e39b8670cfedb15bcc3",
      "css": "cloud-inv",
      "code": 59433,
      "src": "meteocons"
    },
    {
      "uid": "17463471d0f132cee16835507ea51ecf",
      "css": "cloud-4",
      "code": 59432,
      "src": "meteocons"
    },
    {
      "uid": "b215adc51ca2aa37e7bbe244d1fa52cc",
      "css": "clouds",
      "code": 59431,
      "src": "meteocons"
    },
    {
      "uid": "1fb8776fe6f1d3bbf970996fdfcf0f94",
      "css": "link",
      "code": 59420,
      "src": "mfglabs"
    },
    {
      "uid": "348b04ea17f646fbc6a46e20ebe4fe12",
      "css": "download-3",
      "code": 59406,
      "src": "mfglabs"
    },
    {
      "uid": "74ba7c7ac7610225ab8655f50ad179b6",
      "css": "download-cloud",
      "code": 59430,
      "src": "mfglabs"
    },
    {
      "uid": "cb0d73e6d41217d85fc81cea45dd6e91",
      "css": "upload-cloud",
      "code": 59429,
      "src": "mfglabs"
    },
    {
      "uid": "f08fd9b6b61b3670cf88ed64da891cae",
      "css": "cloud-3",
      "code": 59428,
      "src": "mfglabs"
    },
    {
      "uid": "6c304f746d790c6749f345ac384cbd7c",
      "css": "cloudapp",
      "code": 59426,
      "src": "zocial"
    },
    {
      "uid": "1e123339045e48ddd01031936b9fc2d9",
      "css": "soundcloud",
      "code": 59427,
      "src": "zocial"
    },
    {
      "uid": "e36d581e4f2844db345bddc205d15dda",
      "css": "group",
      "code": 59413,
      "src": "elusive"
    },
    {
      "uid": "081a030199f3ab4e18fd3ebdac1bd367",
      "css": "cw",
      "code": 59414,
      "src": "elusive"
    },
    {
      "uid": "d5fabfa46384953ae055fceacb2229a7",
      "css": "arrows-cw",
      "code": 59415,
      "src": "elusive"
    },
    {
      "uid": "949f56916cd9c4f45ef76cc604f02e2e",
      "css": "laptop",
      "code": 59442,
      "src": "elusive"
    },
    {
      "uid": "df4bad7f2eb18034fdfa1cbb3ddf8ac4",
      "css": "cloud-2",
      "code": 59425,
      "src": "elusive"
    },
    {
      "uid": "b9a3ecf978bd8c42e3d31596118d9dbc",
      "css": "cloud-circled",
      "code": 59424,
      "src": "elusive"
    },
    {
      "uid": "484b4ad2058d17849f205c4054b6f315",
      "css": "cog",
      "code": 59446,
      "src": "linecons"
    },
    {
      "uid": "3e2bd88137dd7ceec98b4bfd8640e5ec",
      "css": "params",
      "code": 59447,
      "src": "linecons"
    },
    {
      "uid": "f6eb7f8aed5dc03a323d5ef2895ae50b",
      "css": "cloud-1",
      "code": 59423,
      "src": "linecons"
    },
    {
      "uid": "7e25a96981e6bd6b1592c409da293c45",
      "css": "cloud",
      "code": 59422,
      "src": "websymbols"
    }
  ]
}