<?xml version="1.0" encoding="UTF-8" standalone="no"?>
<!-- Generator: Adobe Illustrator 16.2.1, SVG Export Plug-In . SVG Version: 6.00 Build 0)  -->

<svg
   xmlns:dc="http://purl.org/dc/elements/1.1/"
   xmlns:cc="http://creativecommons.org/ns#"
   xmlns:rdf="http://www.w3.org/1999/02/22-rdf-syntax-ns#"
   xmlns:svg="http://www.w3.org/2000/svg"
   xmlns="http://www.w3.org/2000/svg"
   xmlns:sodipodi="http://sodipodi.sourceforge.net/DTD/sodipodi-0.dtd"
   xmlns:inkscape="http://www.inkscape.org/namespaces/inkscape"
   version="1.1"
   id="Layer_1"
   x="0px"
   y="0px"
   width="544"
   height="544"
   viewBox="0 0 544 544"
   xml:space="preserve"
   inkscape:version="0.91 r13725"
   sodipodi:docname="clipboard-icon.svg"
   inkscape:export-filename="/home/jakob/dev/limbosoft/clipster/client/resources/images/clipboard-icon-1024.png"
   inkscape:export-xdpi="169.41"
   inkscape:export-ydpi="169.41"><metadata
     id="metadata25"><rdf:RDF><cc:Work
         rdf:about=""><dc:format>image/svg+xml</dc:format><dc:type
           rdf:resource="http://purl.org/dc/dcmitype/StillImage" /><dc:title /></cc:Work></rdf:RDF></metadata><defs
     id="defs23" /><sodipodi:namedview
     pagecolor="#ffffff"
     bordercolor="#666666"
     borderopacity="1"
     objecttolerance="10"
     gridtolerance="10"
     guidetolerance="10"
     inkscape:pageopacity="0"
     inkscape:pageshadow="2"
     inkscape:window-width="1920"
     inkscape:window-height="1001"
     id="namedview21"
     showgrid="false"
     fit-margin-top="0"
     fit-margin-left="0"
     fit-margin-right="0"
     fit-margin-bottom="0"
     inkscape:zoom="1.3037281"
     inkscape:cx="1.0554231"
     inkscape:cy="155.49584"
     inkscape:window-x="-4"
     inkscape:window-y="50"
     inkscape:window-maximized="1"
     inkscape:current-layer="Layer_1" /><g
     id="g3848"
     style="stroke:#646464;stroke-opacity:1;stroke-width:7.6;stroke-miterlimit:4;stroke-dasharray:none;stroke-linejoin:round"
     inkscape:export-filename="/home/jakob/dev/limbosoft/Clipster/resources/images/clipboard-icon.png"
     inkscape:export-xdpi="3.1829798"
     inkscape:export-ydpi="3.1829798"><rect
       style="fill:#ececec;stroke:#646464;stroke-opacity:1;stroke-width:7.6;stroke-miterlimit:4;stroke-dasharray:none;stroke-linejoin:round"
       id="rect3850"
       height="41.971405"
       width="144.66856"
       y="213.6875"
       x="144.11076" /><rect
       style="fill:#ececec;stroke:#646464;stroke-opacity:1;stroke-width:7.6;stroke-miterlimit:4;stroke-dasharray:none;stroke-linejoin:round"
       id="rect3852"
       height="42.357819"
       width="154.32729"
       y="381.42221"
       x="144.11076" /><rect
       style="fill:#ececec;stroke:#646464;stroke-opacity:1;stroke-width:7.6;stroke-miterlimit:4;stroke-dasharray:none;stroke-linejoin:round"
       id="rect3854"
       height="42.738434"
       width="240.18045"
       y="299.02142"
       x="144.11076" /></g><g
     id="g3839"
     style="stroke:#646464;stroke-opacity:1;stroke-width:4.3;stroke-miterlimit:4;stroke-dasharray:none"
     inkscape:export-filename="/home/jakob/dev/limbosoft/Clipster/resources/images/clipboard-icon.png"
     inkscape:export-xdpi="3.1829798"
     inkscape:export-ydpi="3.1829798"><path
       style="fill:#ececec;stroke:#646464;stroke-width:4.3;stroke-miterlimit:4;stroke-opacity:1;stroke-dasharray:none"
       inkscape:connector-curvature="0"
       id="path7"
       d="m 160.28508,173.6875 h 221.70503 c -1.96301,-20 -11.20072,-35.2 -32.21651,-40.1 -0.46189,-0.1 -1.03924,-0.3 -1.50113,-0.4 -13.85656,-3.4 -24.01804,-7.5 -24.01804,-20.7 V 91.887498 c 0,-25.5 -23.67164,-46.3 -53.11683,-46.3 -29.4452,0 -53.11684,20.7 -53.11684,46.3 V 112.4875 c 0,13.1 -10.16148,17.2 -24.01804,20.6 -0.46189,0.1 -1.03924,0.4 -1.6166,0.5 -21.01579,4.9 -29.90708,20.1 -32.10104,40.1 z M 271.1376,78.087498 c 8.77582,0 15.93504,6.2 15.93504,13.8 0,7.7 -7.15922,13.800002 -15.93504,13.800002 -8.77583,0 -15.93505,-6.200002 -15.93505,-13.800002 0,-7.6 7.15922,-13.8 15.93505,-13.8 z" /><path
       style="fill:#ececec;stroke:#646464;stroke-width:4.3;stroke-miterlimit:4;stroke-opacity:1;stroke-dasharray:none"
       inkscape:connector-curvature="0"
       id="path9"
       d="m 442.72805,76.687498 h -84.98693 v 14.5 c 0,10.600002 10.04601,18.500002 21.93956,18.500002 h 42.95535 c 7.73658,0 13.97204,5.7 14.31845,12.5 l 0.11547,327.2 c -0.34641,6.4 -6.11998,11.6 -13.2792,12.1 l -305.30631,0.1 c -7.15922,-0.5 -12.81732,-5.7 -13.2792,-12.1 l -0.11547,-327.3 c 0.34641,-6.8 6.81281,-12.5 14.43392,-12.5 h 43.07082 c 11.89355,0 21.93956,-7.9 21.93956,-18.500002 v -14.5 H 99.547139 c -17.436176,0 -31.639155,13.1 -31.639155,28.600002 v 360.4 c 0,15.5 14.202979,28 31.639155,28 H 271.1376 442.72805 c 17.43618,0 31.63916,-12.5 31.63916,-28 v -360.4 c 0,-15.500002 -14.20298,-28.600002 -31.63916,-28.600002 z" /></g><g
     id="g3843"
     inkscape:export-filename="/home/jakob/dev/limbosoft/Clipster/resources/images/clipboard-icon.png"
     inkscape:export-xdpi="3.1829798"
     inkscape:export-ydpi="3.1829798"><rect
       x="144.11076"
       y="213.6875"
       width="144.66856"
       height="41.971405"
       id="rect11"
       style="fill:#ececec" /><rect
       x="144.11076"
       y="381.42221"
       width="154.32729"
       height="42.357819"
       id="rect15"
       style="fill:#ececec" /><rect
       x="144.11076"
       y="299.02142"
       width="240.18045"
       height="42.738434"
       id="rect19"
       style="fill:#ececec" /></g></svg>